\beamer@sectionintoc {1}{Introducción}{3}{0}{1}
\beamer@sectionintoc {2}{La trinidad del buen vivir}{5}{0}{2}
\beamer@sectionintoc {3}{Los manantiales intelectuales del buen vivir}{7}{0}{3}
\beamer@sectionintoc {4}{Alternativas al desarrollo en Latinoamérica}{9}{0}{4}
